<?xml version="1.0" encoding="UTF-8" standalone="no"?>
<!-- Created with Inkscape (http://www.inkscape.org/) -->

<svg
   xmlns:dc="http://purl.org/dc/elements/1.1/"
   xmlns:cc="http://creativecommons.org/ns#"
   xmlns:rdf="http://www.w3.org/1999/02/22-rdf-syntax-ns#"
   xmlns:svg="http://www.w3.org/2000/svg"
   xmlns="http://www.w3.org/2000/svg"
   xmlns:sodipodi="http://sodipodi.sourceforge.net/DTD/sodipodi-0.dtd"
   xmlns:inkscape="http://www.inkscape.org/namespaces/inkscape"
   width="210mm"
   height="297mm"
   viewBox="0 0 210 297"
   version="1.1"
   id="svg8"
   inkscape:version="0.92.3 (2405546, 2018-03-11)">
  <defs
     id="defs2" />
  <sodipodi:namedview
     id="base"
     pagecolor="#ffffff"
     bordercolor="#666666"
     borderopacity="1.0"
     inkscape:pageopacity="0.0"
     inkscape:pageshadow="2"
     inkscape:zoom="0.7"
     inkscape:cx="361.06343"
     inkscape:cy="563.02017"
     inkscape:document-units="mm"
     inkscape:current-layer="layer1"
     showgrid="false"
     inkscape:window-width="1853"
     inkscape:window-height="1025"
     inkscape:window-x="1433"
     inkscape:window-y="27"
     inkscape:window-maximized="1" />
  <metadata
     id="metadata5">
    <rdf:RDF>
      <cc:Work
         rdf:about="">
        <dc:format>image/svg+xml</dc:format>
        <dc:type
           rdf:resource="http://purl.org/dc/dcmitype/StillImage" />
        <dc:title></dc:title>
      </cc:Work>
    </rdf:RDF>
  </metadata>
  <g
     inkscape:label="Layer 1"
     inkscape:groupmode="layer"
     id="layer1">
    <g
       style="fill:none;stroke:none;stroke-linecap:square;stroke-miterlimit:10"
       id="g423"
       transform="matrix(0.26458333,0,0,0.26458333,-1.0791836,74.699997)">
      <g
         id="g410"
         clip-path="url(#p.0)">
        <path
           id="path406"
           d="M 0,0 H 557.8583 V 557.8583 H 0 Z"
           inkscape:connector-curvature="0"
           style="fill:#000000;fill-opacity:0;fill-rule:evenodd" />
        <path
           style="fill:#000000;fill-rule:evenodd;stroke-width:1.55841696"
           d="m 400.81647,-154.57093 -14.19316,29.65862 -21.29126,-24.26505 -11.46289,30.73613 -24.01848,-23.18755 -8.73262,32.89418 -27.84453,-22.64576 -4.90962,33.968623 -27.2997,-19.410203 -2.72723,33.432916 -29.47903,-16.716466 -0.5418,28.581131 -27.29969,-13.480914 3.27512,34.51041 -32.20627,-12.403425 7.09506,34.510426 -34.38866,-9.164832 10.37321,31.8166558 -34.93654,-6.4710768 12.00468,32.355416 -33.843827,-3.774299 14.741037,31.274872 H 78.193733 l 19.650663,32.355413 -33.302031,2.6968 18.560989,27.500573 -32.206268,5.39663 22.380937,25.8813 -32.754145,8.62911 22.931856,22.6488 -30.026916,11.32286 25.656044,21.5713 -30.023874,14.01966 27.844527,19.4163 -30.574797,16.17465 28.386316,17.25521 -32.206266,21.5713 31.661428,14.01966 -26.748768,21.57129 32.757196,12.40645 -24.569416,23.72325 32.754149,8.62609 -20.743382,23.73237 32.754149,7.00983 -19.108869,27.50058 34.394748,3.7743 -17.46827,28.58111 30.568707,-0.53874 -13.645273,25.34558 34.933493,-2.69984 -12.55256,30.73917 33.84383,-4.85484 -9.82534,33.97776 34.93655,-9.70967 -6.55022,32.89416 31.11354,-11.32592 -3.27207,33.43596 31.11356,-14.01966 v 33.97166 l 35.48139,-19.4102 3.82298,32.89112 26.20392,-18.33576 5.46056,30.74222 26.20088,-21.57129 8.19082,32.89416 24.56333,-23.72933 12.55865,32.8972 20.19551,-25.34558 14.19315,29.65862 19.65066,-26.96487 15.28589,28.58112 18.01614,-30.73613 24.01849,32.89418 14.738,-29.11988 20.74338,25.88738 11.46593,-31.81667 24.56333,22.64574 8.19082,-33.4329 27.83844,24.26807 4.91572,-35.05221 28.38631,21.02951 2.72723,-35.04917 29.48208,17.25522 -0.54787,-29.66168 27.83844,14.01968 -3.81995,-34.51042 32.20626,11.86467 -6.55021,-33.97471 32.75719,9.17091 -5.9719,-24.43549 L 289.61795,269.27585 760.72251,5.5168388 l 4.75135,-13.407872 -32.75416,6.468038 9.28356,-33.4359588 -34.39476,9.170925 5.46055,-32.897215 -31.11355,11.325919 2.72723,-32.89416 -29.47904,14.019659 -0.54788,-34.510414 -35.48138,20.490755 -2.73027,-32.358455 -27.83845,18.877541 -4.9157,-32.355411 -25.65605,20.49075 -8.18474,-32.89418 -25.65909,25.34254 -12.01076,-32.35236 -21.29127,25.34254 -13.10044,-28.57808 -19.10583,25.88128 -16.92343,-28.03933 -16.92039,29.66166 z"
           id="path408"
           inkscape:connector-curvature="0" />
      </g>
    </g>
    <g
       style="fill:#ff0000;stroke:none;stroke-linecap:square;stroke-miterlimit:10"
       id="g314"
       transform="matrix(0.19894986,-0.34283294,0.34283294,0.19894986,-36.064843,188.63319)">
      <g
         id="g301"
         clip-path="url(#p.0)"
         style="fill:#ff0000">
        <path
           id="path297"
           d="M 0,0 H 557.8583 V 557.8583 H 0 Z"
           inkscape:connector-curvature="0"
           style="fill:#ff0000;fill-opacity:0;fill-rule:evenodd" />
      </g>
    </g>
  </g>
</svg>
